Procesamiento de datos masivos con R y RStudio
…
Con respecto a los tipos de cada una de las columnas, R infiere los
tipos de forma automática, pero conviene revisarlos y modificarlos al
tipo correcto cuando sea necesario.

Una vez configurada la carga y revisado los tipos de datos, podemos
copiar el código que aparece en la parte inferior derecha de la interfaz
y pegarlo en nuestro Script:

# lectura de datos en un fichero csv
accidentes <- read_csv("../data/accidentes_bicicletas.csv", 
        col_types = cols(fecha = col_date(format = "%d/%m/%Y"), 
                         hora  = col_time(format = "%H:%M:%S")))
accidentes

## # A tibble: 878 × 19
##    num_expediente fecha      hora   localizacion    numero cod_distrito distrito
##             <dbl> <date>     <time> <chr>           <chr>         <dbl> <chr>   
##  1       2.02e 37 2022-01-02 00:05  CALL. MARIA TE… 6                15 CIUDAD …
##  2       2.02e293 2022-01-05 10:45  PASEO. MARQUES… 1                10 LATINA  
##  3       2.02e295 2022-01-07 13:55  CALL. PICO CLA… 4A               13 PUENTE …
##  4     Inf        2022-01-08 03:00  CALL. HUERTAS,… 24                1 CENTRO  
##  5     Inf        2022-01-07 18:40  PQUE. FUENTE C… 0                14 MORATAL…
##  6     Inf        2022-01-09 14:20  CALL. ALCALA, … 69                4 SALAMAN…
##  7     Inf        2022-01-09 23:30  CALL. ALCALA, … 291              15 CIUDAD …
##  8     Inf        2022-01-10 00:20  CALL. SAGASTA,… 30                1 CENTRO  
##  9     Inf        2022-01-10 14:29  CALL. ARACNE, … 29               20 SAN BLA…
## 10     Inf        2022-01-10 17:45  CUSTA. SAN VIC… 1                 1 CENTRO  
## # ℹ 868 more rows
## # ℹ 12 more variables: tipo_accidente <chr>, estado_meteorológico <chr>,
## #   tipo_vehiculo <chr>, tipo_persona <chr>, rango_edad <chr>, sexo <chr>,
## #   cod_lesividad <chr>, lesividad <chr>, coordenada_x_utm <chr>,
## #   coordenada_y_utm <chr>, positiva_alcohol <chr>, positiva_droga <chr>
…
Si queremos que el destino sea un archivo en formato EXCEL, lo
mejor es usar la función función write_xlsx() incluida en
la biblioteca writexl.

Los argumentos más importantes son x (el data frame a
guardar) y file (la ubicación donde se guardará el
archivo). También se puede configurar cómo se escriben los valores
ausentes con na .

# tibble
t

## # A tibble: 878 × 19
##    num_expediente fecha      hora   localizacion    numero cod_distrito distrito
##             <dbl> <chr>      <time> <chr>           <chr>         <dbl> <chr>   
##  1       2.02e 37 02/01/2022 00:05  CALL. MARIA TE… 6                15 CIUDAD …
##  2       2.02e293 05/01/2022 10:45  PASEO. MARQUES… 1                10 LATINA  
##  3       2.02e295 07/01/2022 13:55  CALL. PICO CLA… 4A               13 PUENTE …
##  4     Inf        08/01/2022 03:00  CALL. HUERTAS,… 24                1 CENTRO  
##  5     Inf        07/01/2022 18:40  PQUE. FUENTE C… 0                14 MORATAL…
##  6     Inf        09/01/2022 14:20  CALL. ALCALA, … 69                4 SALAMAN…
##  7     Inf        09/01/2022 23:30  CALL. ALCALA, … 291              15 CIUDAD …
##  8     Inf        10/01/2022 00:20  CALL. SAGASTA,… 30                1 CENTRO  
##  9     Inf        10/01/2022 14:29  CALL. ARACNE, … 29               20 SAN BLA…
## 10     Inf        10/01/2022 17:45  CUSTA. SAN VIC… 1                 1 CENTRO  
## # ℹ 868 more rows
## # ℹ 12 more variables: tipo_accidente <chr>, estado_meteorológico <chr>,
## #   tipo_vehiculo <chr>, tipo_persona <chr>, rango_edad <chr>, sexo <chr>,
## #   cod_lesividad <chr>, lesividad <chr>, coordenada_x_utm <chr>,
## #   coordenada_y_utm <chr>, positiva_alcohol <chr>, positiva_droga <chr>
…
